text_lab
…
total_words <- word_count %>% 
  group_by(region) %>% 
  summarize(total = sum(n))

inag_words <- left_join(word_count, total_words)

inag_words <- inag_words %>%
  bind_tf_idf(word, region, n)

head(inag_words, 100)

## # A tibble: 100 x 7
##    region       word      n total     tf   idf tf_idf
##    <chr>        <chr> <int> <int>  <dbl> <dbl>  <dbl>
##  1 Southwest    the    2917 42120 0.0693     0      0
##  2 West         the    2284 48307 0.0473     0      0
##  3 Midwest      the    1892 41124 0.0460     0      0
##  4 Mid-Atlantic the    1765 33539 0.0526     0      0
##  5 Southwest    of     1504 42120 0.0357     0      0
##  6 Northeast    the    1387 30145 0.0460     0      0
##  7 West         of     1189 48307 0.0246     0      0
##  8 Southwest    to     1166 42120 0.0277     0      0
##  9 West         and    1128 48307 0.0234     0      0
## 10 West         to     1121 48307 0.0232     0      0
## # ... with 90 more rows
…
